Epidemic Control Plots • mindthegap
…
Let’s first filter the 2 datasets down to the indicators that we
need, and filter for all sexes and all ages.

#Filter down to the estimate and all ages, and the indicators you need

  #Pull indicators 
 df_epi_pepfar <- df_epi %>%
 dplyr::filter(age == "All", sex == "All",
        indicator %in% c("Total deaths to HIV Population", "Number New HIV Infections")) %>% #grab indicators 
      dplyr::select(year, country,indicator, estimate) %>% 
      dplyr::arrange(country, indicator, year) #order rows by these variables 

df_epi_pepfar
#> # A tibble: 3,498 × 4
#>     year country indicator                 estimate
#>    <dbl> <chr>   <chr>                        <dbl>
#>  1  1990 Angola  Number New HIV Infections     6800
#>  2  1991 Angola  Number New HIV Infections     8000
#>  3  1992 Angola  Number New HIV Infections     9200
#>  4  1993 Angola  Number New HIV Infections    10000
#>  5  1994 Angola  Number New HIV Infections    12000
#>  6  1995 Angola  Number New HIV Infections    14000
#>  7  1996 Angola  Number New HIV Infections    15000
#>  8  1997 Angola  Number New HIV Infections    17000
#>  9  1998 Angola  Number New HIV Infections    18000
#> 10  1999 Angola  Number New HIV Infections    20000
#> # ℹ 3,488 more rows
…
   #Create epi control flag
    df_epi_pepfar <-
      df_epi_pepfar %>%
      dplyr::mutate(declining_deaths = deaths - dplyr::lag(deaths, order_by = year) <= 0, by = c(country)) %>% #TRUE/FALSE declining 
      dplyr::mutate(infections_below_deaths = infections < deaths,
             ratio = infections / deaths,
             direction_streak = sequence(rle(declining_deaths)$lengths),
             epi_control = declining_deaths == TRUE & infections_below_deaths == TRUE) #epi control definition 

df_epi_pepfar
#> # A tibble: 1,848 × 10
#>     year country infections deaths declining_deaths by    infections_below_dea…¹
#>    <dbl> <chr>        <dbl>  <dbl> <lgl>            <chr> <lgl>                 
#>  1  1990 Angola        6800   2025 NA               Ango… FALSE                 
#>  2  1991 Angola        8000   2435 TRUE             Ango… FALSE                 
#>  3  1992 Angola        9200   2989 TRUE             Ango… FALSE                 
#>  4  1993 Angola       10000   3605 TRUE             Ango… FALSE                 
#>  5  1994 Angola       12000   4218 TRUE             Ango… FALSE                 
#>  6  1995 Angola       14000   4825 TRUE             Ango… FALSE                 
#>  7  1996 Angola       15000   5628 TRUE             Ango… FALSE                 
#>  8  1997 Angola       17000   6505 TRUE             Ango… FALSE                 
#>  9  1998 Angola       18000   7557 TRUE             Ango… FALSE                 
#> 10  1999 Angola       20000   8619 TRUE             Ango… FALSE                 
#> # ℹ 1,838 more rows
#> # ℹ abbreviated name: ¹​infections_below_deaths
#> # ℹ 3 more variables: ratio <dbl>, direction_streak <int>, epi_control <lgl>
…
  #Add colors to indicators and flip axis
  df_epi_pepfar <- df_epi_pepfar %>% 
    tidyr::pivot_longer(c(infections, deaths), names_to = "indicator") %>% #put back indicators in column
    dplyr::arrange(country, indicator, year) %>%
    dplyr::mutate(val_mod = ifelse(indicator == "deaths", -value, value), #create dual-axis
                  fill_color = ifelse(indicator == "deaths", glitr::old_rose, glitr::denim)) #add colors to indicate flip axis

df_epi_pepfar
#> # A tibble: 3,696 × 12
#>     year country    declining_deaths by         infections_below_deaths ratio
#>    <dbl> <chr>      <lgl>            <chr>      <lgl>                   <dbl>
#>  1  1990 All PEPFAR FALSE            All PEPFAR FALSE                    5.05
#>  2  1991 All PEPFAR FALSE            All PEPFAR FALSE                    4.39
#>  3  1992 All PEPFAR FALSE            All PEPFAR FALSE                    3.79
#>  4  1993 All PEPFAR FALSE            All PEPFAR FALSE                    3.25
#>  5  1994 All PEPFAR FALSE            All PEPFAR FALSE                    2.73
#>  6  1995 All PEPFAR FALSE            All PEPFAR FALSE                    2.46
#>  7  1996 All PEPFAR FALSE            All PEPFAR FALSE                    2.17
#>  8  1997 All PEPFAR FALSE            All PEPFAR FALSE                    1.94
#>  9  1998 All PEPFAR FALSE            All PEPFAR FALSE                    1.75
#> 10  1999 All PEPFAR FALSE            All PEPFAR FALSE                    1.59
#> # ℹ 3,686 more rows
#> # ℹ 6 more variables: direction_streak <int>, epi_control <lgl>,
#> #   indicator <chr>, value <dbl>, val_mod <dbl>, fill_color <chr>
…
